shunt-sim

.include INA126.LIB

Vcc Vcc 0 dc (3.3v)
Vsmall Vccpostshuntac 0 dc (0v) sin(0.03v 0.03v)
Rg Rga Rgb 16k
Xamp Rga 0 Vccpostshuntac 0 0 Vamp Vcc Rgb INA126

.control
destroy all
set gminsteps = 1
* perform a transient analysis
* tran 0.1ns 10.05us 10us 0.1ns
tran 0.1ns 0.00011
plot v(Vccpostshuntac)
plot v(Vamp)
* plot i(Vopshunt)
.endc

.end
